Status: PASS
Time Taken: 174
Size: 1030
Timestamp: Thu Jun 17 17:35:11 IST 2021
TestStep: REST Request

----------------- Messages ------------------------------

----------------- Properties ------------------------------
HTTP Version: HTTP/1.1
Endpoint: https://reqres.in/api/users?page=2
Encoding: UTF-8
Method: GET
StatusCode: 200
URL: https://reqres.in/api/users?page=2

---------------- Request ---------------------------
Connection: [Keep-Alive]
User-Agent: [Apache-HttpClient/4.5.2 (Java/15)]
Host: [reqres.in]
Accept-Encoding: [gzip,deflate]
Content-Length: [0]

GET https://reqres.in/api/users?page=2 HTTP/1.1
Accept-Encoding: gzip,deflate
Content-Length: 0
Host: reqres.in
Connection: Keep-Alive
User-Agent: Apache-HttpClient/4.5.2 (Java/15)


---------------- Response --------------------------
Transfer-Encoding: [chunked]
Server: [cloudflare]
CF-RAY: [660c25111c1b2e76-BOM]
Access-Control-Allow-Origin: [*]
Connection: [keep-alive]
Date: [Thu, 17 Jun 2021 12:05:12 GMT]
Via: [1.1 vegur]
CF-Cache-Status: [HIT]
Etag: [W/"406-ut0vzoCuidvyMf8arZpMpJ6ZRDw"]
Cache-Control: [max-age=14400]
NEL: [{"report_to":"cf-nel","max_age":604800}]
Report-To: [{"endpoints":[{"url":"https:\/\/a.nel.cloudflare.com\/report\/v2?s=Pz7TeKB%2BKg5RlZ4CVkv1%2FjF%2BbodVGH8KYVJ51gUUUAAn8cAAhbkPWGr8kmLz%2FlA%2FYYAPFG6N3xRX1FfUREu6TpuP%2BhJHp305lp11mWwSsHXdIekvwPJx"}],"group":"cf-nel","max_age":604800}]
Vary: [Accept-Encoding]
#status#: [HTTP/1.1 200 OK]
alt-svc: [h3-27=":443"; ma=86400, h3-28=":443"; ma=86400, h3-29=":443"; ma=86400, h3=":443"; ma=86400]
Age: [977]
Content-Type: [application/json; charset=utf-8]
X-Powered-By: [Express]
cf-request-id: [0abb757eac00002e76fa879000000001]
Expect-CT: [max-age=604800, report-uri="https://report-uri.cloudflare.com/cdn-cgi/beacon/expect-ct"]

{"page":2,"per_page":6,"total":12,"total_pages":2,"data":[{"id":7,"email":"michael.lawson@reqres.in","first_name":"Michael","last_name":"Lawson","avatar":"https://reqres.in/img/faces/7-image.jpg"},{"id":8,"email":"lindsay.ferguson@reqres.in","first_name":"Lindsay","last_name":"Ferguson","avatar":"https://reqres.in/img/faces/8-image.jpg"},{"id":9,"email":"tobias.funke@reqres.in","first_name":"Tobias","last_name":"Funke","avatar":"https://reqres.in/img/faces/9-image.jpg"},{"id":10,"email":"byron.fields@reqres.in","first_name":"Byron","last_name":"Fields","avatar":"https://reqres.in/img/faces/10-image.jpg"},{"id":11,"email":"george.edwards@reqres.in","first_name":"George","last_name":"Edwards","avatar":"https://reqres.in/img/faces/11-image.jpg"},{"id":12,"email":"rachel.howell@reqres.in","first_name":"Rachel","last_name":"Howell","avatar":"https://reqres.in/img/faces/12-image.jpg"}],"support":{"url":"https://reqres.in/#support-heading","text":"To keep ReqRes free, contributions towards server costs are appreciated!"}}
